stm32f4xx_3dprinter_uart.c:89:6:BSP_UartHwInit	24	static
stm32f4xx_3dprinter_uart.c:119:6:BSP_UartIfStart	16	static
stm32f4xx_3dprinter_uart.c:155:6:BSP_UartIfQueueTxData	24	static
stm32f4xx_3dprinter_uart.c:206:6:BSP_UartIfSendQueuedData	16	static
stm32f4xx_3dprinter_uart.c:279:6:HAL_UART_TxCpltCallback	24	static
stm32f4xx_3dprinter_uart.c:339:6:HAL_UART_RxCpltCallback	32	static
stm32f4xx_3dprinter_uart.c:406:6:HAL_UART_ErrorCallback	16	static
stm32f4xx_3dprinter_uart.c:417:6:BSP_UartAttachRxDataHandler	24	static
stm32f4xx_3dprinter_uart.c:429:6:BSP_UartAttachTxDoneCallback	24	static
stm32f4xx_3dprinter_uart.c:443:10:BSP_UartPrintf	32	static
stm32f4xx_3dprinter_uart.c:493:10:BSP_UartGetNbRxAvalaibleBytes	24	static
stm32f4xx_3dprinter_uart.c:537:9:BSP_UartParseRxAvalaibleBytes	16	static
stm32f4xx_3dprinter_uart.c:547:8:BSP_UartGetNextRxBytes	24	static
stm32f4xx_3dprinter_uart.c:582:9:BSP_UartIsTxOnGoing	16	static
stm32f4xx_3dprinter_uart.c:595:10:BSP_UartCommandsFilter	16	static
stm32f4xx_3dprinter_uart.c:615:6:BSP_UartLockingTx	24	static
