stm32f4xx_3dprinter_motor.c:129:6:BSP_MotorControlBoard_Delay	16	static
stm32f4xx_3dprinter_motor.c:139:6:BSP_MotorControlBoard_DisableIrq	4	static
stm32f4xx_3dprinter_motor.c:149:6:BSP_MotorControlBoard_EnableIrq	4	static
stm32f4xx_3dprinter_motor.c:159:6:BSP_MotorControlBoard_GpioInit	40	static
stm32f4xx_3dprinter_motor.c:290:6:BSP_MotorControlBoard_PwmXSetFreq	24	static
stm32f4xx_3dprinter_motor.c:306:6:BSP_MotorControlBoard_PwmYSetFreq	24	static
stm32f4xx_3dprinter_motor.c:321:6:BSP_MotorControlBoard_PwmZSetFreq	24	static
stm32f4xx_3dprinter_motor.c:336:6:BSP_MotorControlBoard_PwmE1SetFreq	24	static
stm32f4xx_3dprinter_motor.c:351:6:BSP_MotorControlBoard_PwmE2SetFreq	24	static
stm32f4xx_3dprinter_motor.c:366:6:BSP_MotorControlBoard_PwmE3SetFreq	24	static
stm32f4xx_3dprinter_motor.c:384:6:BSP_MotorControlBoard_PwmInit	64	static
stm32f4xx_3dprinter_motor.c:448:6:BSP_MotorControlBoard_PwmStop	16	static
stm32f4xx_3dprinter_motor.c:480:6:BSP_MotorControlBoard_ReleaseReset	8	static
stm32f4xx_3dprinter_motor.c:495:6:BSP_MotorControlBoard_Reset	8	static
stm32f4xx_3dprinter_motor.c:511:6:BSP_MotorControlBoard_SetDirectionGpio	16	static
stm32f4xx_3dprinter_motor.c:543:9:BSP_MotorControlBoard_SpiInit	16	static
stm32f4xx_3dprinter_motor.c:573:9:BSP_MotorControlBoard_SpiWriteBytes	40	static
