l6474.c:213:6:L6474_AttachErrorHandler	16	static
l6474.c:228:6:L6474_AttachFlagInterrupt	16	static
l6474.c:238:6:L6474_Init	24	static
l6474.c:300:10:L6474_GetAcceleration	16	static
l6474.c:310:10:L6474_GetCurrentSpeed	16	static
l6474.c:320:10:L6474_GetDeceleration	16	static
l6474.c:330:14:L6474_GetDeviceState	16	static
l6474.c:340:9:L6474_GetFwVersion	4	static
l6474.c:350:13:L6474_GetMotorHandle	4	static
l6474.c:360:9:L6474_GetMark	16	static
l6474.c:370:10:L6474_GetMaxSpeed	16	static
l6474.c:380:10:L6474_GetMinSpeed	16	static
l6474.c:390:9:L6474_GetPosition	16	static
l6474.c:402:6:L6474_GoHome	16	static
l6474.c:412:6:L6474_GoMark	24	static
l6474.c:426:6:L6474_GoTo	32	static
l6474.c:475:6:L6474_HardStop	16	static
l6474.c:496:6:L6474_Move	24	static
l6474.c:527:10:L6474_ReadId	4	static
l6474.c:537:6:L6474_ResetAllDevices	16	static
l6474.c:559:6:L6474_Run	16	static
l6474.c:584:6:L6474_SetAcceleration	24	static
l6474.c:605:6:L6474_SetDeceleration	24	static
l6474.c:623:6:L6474_SetHome	16	static
l6474.c:633:6:L6474_SetMark	24	static
l6474.c:647:6:L6474_SetMaxSpeed	24	static
l6474.c:670:6:L6474_SetMinSpeed	24	static
l6474.c:691:6:L6474_SoftStop	24	static
l6474.c:707:6:L6474_WaitWhileActive	16	static
l6474.c:726:6:L6474_CmdDisable	16	static
l6474.c:736:6:L6474_CmdEnable	16	static
l6474.c:747:10:L6474_CmdGetParam	32	static
l6474.c:825:10:L6474_CmdGetStatus	24	static
l6474.c:875:6:L6474_CmdNop	16	static
l6474.c:887:6:L6474_CmdSetParam	32	static
l6474.c:956:10:L6474_ReadStatusRegister	16	static
l6474.c:966:6:L6474_ReleaseReset	8	static
l6474.c:976:6:L6474_Reset	8	static
l6474.c:987:6:L6474_SelectStepMode	24	static
l6474.c:1036:6:L6474_SetDirection	16	static
l6474.c:1059:6:L6474_ApplySpeed	16	static
l6474.c:1111:6:L6474_ComputeSpeedProfile	40	static
l6474.c:1167:9:L6474_ConvertPosition	24	static
l6474.c:1192:6:L6474_ErrorHandler	16	static
l6474.c:1212:6:L6474_FlagInterruptHandler	8	static
l6474.c:1232:6:L6474_SendCommand	24	static
l6474.c:1272:6:L6474_SetRegisterToPredefinedValues	16	static
l6474.c:1520:6:L6474_SetDeviceParamsToPredefinedValues	16	static
l6474.c:1565:6:L6474_StartMovement	16	static
l6474.c:1588:6:L6474_StepClockHandler	56	static
l6474.c:1726:16:L6474_Tval_Current_to_Par	24	static
l6474.c:1737:16:L6474_Tmin_Time_to_Par	24	static
l6474.c:1748:6:L6474_WriteBytes	16	static
