MarlinSerial.h:151:23:void MarlinSerial::write(uint8_t)	16	static
MarlinSerial.h:173:23:void MarlinSerial::write(const char*)	16	static
Marlin.h:114:19:void serialprintPGM(const char*)	16	static
endstops.h:69:17:static void Endstops::enable_globally(bool)	16	static
configuration_store.cpp:144:6:void _EEPROM_writeData(int&, uint8_t*, uint8_t)	24	static
configuration_store.cpp:160:6:void _EEPROM_readData(int&, uint8_t*, uint8_t)	24	static
configuration_store.cpp:175:6:void Config_Postprocess()	8	static
configuration_store.cpp:970:6:void Config_ResetDefault()	72	static
configuration_store.cpp:1093:6:void Config_PrintSettings(bool)	32	static
