cmath:167:3:constexpr float std::atan2(float, float)	16	static
cmath:207:3:constexpr float std::cos(float)	16	static
cmath:264:3:constexpr float std::fabs(float)	16	static
cmath:283:3:constexpr float std::floor(float)	16	static
cmath:448:3:constexpr float std::sin(float)	16	static
cmath:486:3:constexpr float std::sqrt(float)	16	static
core_cm4.h:1623:22:void NVIC_SystemReset()	4	static
MarlinSerial.h:149:22:int MarlinSerial::available()	16	static
MarlinSerial.h:151:23:void MarlinSerial::write(uint8_t)	16	static
MarlinSerial.h:172:23:void MarlinSerial::print(const char*)	16	static
MarlinSerial.h:173:23:void MarlinSerial::write(const char*)	16	static
Marlin.h:108:19:void serial_echopair_P(const char*, uint8_t)	16	static
Marlin.h:110:19:void serial_echopair_P(const char*, bool)	16	static
Marlin.h:114:19:void serialprintPGM(const char*)	16	static
Marlin.h:245:13:bool IsRunning()	4	static
Marlin.h:246:13:bool IsStopped()	4	static
Marlin.h:256:13:void refresh_cmd_timeout()	8	static
ultralcd.h:156:21:void lcd_update()	4	static
ultralcd.h:157:21:void lcd_init()	4	static
ultralcd.h:158:21:bool lcd_hasstatus()	4	static
ultralcd.h:159:21:void lcd_setstatus(const char*, bool)	16	static
ultralcd.h:162:21:void lcd_reset_alert_level()	4	static
planner.h:247:17:static bool Planner::blocks_queued()	4	static
endstops.h:69:17:static void Endstops::enable_globally(bool)	16	static
endstops.h:72:17:static void Endstops::enable(bool)	16	static
endstops.h:75:17:static void Endstops::not_homing()	4	static
endstops.h:78:17:static void Endstops::hit_on_purpose()	4	static
temperature.h:126:19:static bool Temperature::tooColdToExtrude(uint8_t)	16	static
temperature.h:283:18:static float Temperature::degHotend(uint8_t)	16	static
temperature.h:289:18:static float Temperature::degBed()	4	static
temperature.h:301:18:static float Temperature::degTargetHotend(uint8_t)	16	static
temperature.h:307:18:static float Temperature::degTargetBed()	4	static
temperature.h:317:17:static void Temperature::setTargetHotend(const float&, uint8_t)	16	static
temperature.h:333:17:static void Temperature::setTargetBed(const float&)	16	static
temperature.h:340:17:static bool Temperature::isHeatingHotend(uint8_t)	16	static
temperature.h:348:17:static bool Temperature::isCoolingHotend(uint8_t)	16	static
temperature.h:354:17:static bool Temperature::isCoolingBed()	4	static
temperature.h:378:17:static void Temperature::autotempShutdown()	16	static
configuration_store.h:45:21:void Config_StoreSettings()	4	static
configuration_store.h:46:21:void Config_RetrieveSettings()	8	static
duration_t.h:43:3:duration_t::duration_t(const uint32_t&)	16	static
duration_t.h:73:18:uint8_t duration_t::year() const	16	static
duration_t.h:81:19:uint16_t duration_t::day() const	16	static
duration_t.h:89:19:uint32_t duration_t::hour() const	16	static
duration_t.h:97:19:uint32_t duration_t::minute() const	16	static
duration_t.h:105:19:uint32_t duration_t::second() const	16	static
duration_t.h:123:8:void duration_t::toString(char*) const	56	static
Marlin_main.cpp:578:6:void serial_echopair_P(const char*, char)	16	static
Marlin_main.cpp:579:6:void serial_echopair_P(const char*, int)	16	static
Marlin_main.cpp:580:6:void serial_echopair_P(const char*, long int)	16	static
Marlin_main.cpp:581:6:void serial_echopair_P(const char*, float)	24	static
Marlin_main.cpp:582:6:void serial_echopair_P(const char*, double)	24	static
Marlin_main.cpp:583:6:void serial_echopair_P(const char*, long unsigned int)	16	static
Marlin_main.cpp:620:13:void sync_plan_position()	8	static
Marlin_main.cpp:626:13:void sync_plan_position_e()	8	static
Marlin_main.cpp:646:7:int freeMemory()	4	static
Marlin_main.cpp:658:13:bool drain_queued_commands_P()	48	static
Marlin_main.cpp:682:6:void enqueue_and_echo_commands_P(const char*)	16	static
Marlin_main.cpp:687:6:void clear_command_queue()	4	static
Marlin_main.cpp:695:13:void _commit_command(bool)	16	static
Marlin_main.cpp:705:13:bool _enqueuecommand(const char*, bool)	16	static
Marlin_main.cpp:712:6:void enqueue_and_echo_command_now(const char*)	16	static
Marlin_main.cpp:719:6:bool enqueue_and_echo_command(const char*, bool)	16	static
Marlin_main.cpp:730:6:void setup_killpin()	4	static
Marlin_main.cpp:749:6:void setup_homepin()	4	static
Marlin_main.cpp:757:6:void setup_photpin()	4	static
Marlin_main.cpp:763:6:void setup_powerhold()	8	static
Marlin_main.cpp:804:6:void setup_sdcard()	4	static
Marlin_main.cpp:813:6:void suicide()	8	static
Marlin_main.cpp:818:6:void servo_init()	8	static
Marlin_main.cpp:883:6:void setup()	16	static
Marlin_main.cpp:1046:6:void loop()	8	static
Marlin_main.cpp:1097:6:void gcode_line_error(const char*, bool)	16	static
Marlin_main.cpp:1106:13:void get_serial_commands()	40	static
Marlin_main.cpp:1306:6:void get_available_commands()	8	static
Marlin_main.cpp:1330:14:float code_value_float()	24	static
Marlin_main.cpp:1343:22:long unsigned int code_value_ulong()	8	static
Marlin_main.cpp:1345:13:long int code_value_long()	8	static
Marlin_main.cpp:1347:12:int code_value_int()	8	static
Marlin_main.cpp:1349:17:uint16_t code_value_ushort()	8	static
Marlin_main.cpp:1351:16:uint8_t code_value_byte()	8	static
Marlin_main.cpp:1353:13:bool code_value_bool()	8	static
Marlin_main.cpp:1379:16:float code_value_linear_units()	8	static
Marlin_main.cpp:1380:16:float code_value_axis_units(int)	16	static
Marlin_main.cpp:1381:16:float code_value_per_axis_unit(int)	16	static
Marlin_main.cpp:1413:9:float code_value_temp_abs()	8	static
Marlin_main.cpp:1414:9:float code_value_temp_diff()	8	static
Marlin_main.cpp:1417:23:millis_t code_value_millis()	8	static
Marlin_main.cpp:1418:17:millis_t code_value_millis_from_seconds()	8	static
Marlin_main.cpp:1420:6:bool code_seen(char)	16	static
Marlin_main.cpp:1430:6:bool get_target_extruder_from_command(int)	16	static
Marlin_main.cpp:1464:1:float base_min_pos(int)	16	static
Marlin_main.cpp:1465:1:float base_max_pos(int)	16	static
Marlin_main.cpp:1466:1:float base_home_pos(int)	16	static
Marlin_main.cpp:1467:1:float max_length(int)	16	static
Marlin_main.cpp:1468:1:float home_bump_mm(int)	16	static
Marlin_main.cpp:1469:1:signed char home_dir(int)	16	static
Marlin_main.cpp:1518:13:void update_software_endstops(AxisEnum)	32	static
Marlin_main.cpp:1569:13:void set_home_offset(AxisEnum, float)	16	static
Marlin_main.cpp:1575:13:void set_axis_is_at_home(AxisEnum)	24	static
Marlin_main.cpp:1663:14:float get_homing_bump_feedrate(AxisEnum)	32	static
Marlin_main.cpp:1678:13:void line_to_current_position()	16	static
Marlin_main.cpp:1686:13:void line_to_axis_pos(AxisEnum, float, float)	40	static
Marlin_main.cpp:1699:13:void line_to_destination(float)	24	static
Marlin_main.cpp:1702:13:void line_to_destination()	8	static
Marlin_main.cpp:1704:13:void set_current_to_destination()	8	static
Marlin_main.cpp:1705:13:void set_destination_to_current()	8	static
Marlin_main.cpp:1726:6:void do_blocking_move_to(float, float, float, float)	32	static
Marlin_main.cpp:1821:6:void do_blocking_move_to_z(float, float)	16	static
Marlin_main.cpp:1824:6:void do_blocking_move_to_xy(float, float, float)	24	static
Marlin_main.cpp:1837:13:void setup_for_endstop_or_probe_move()	8	static
Marlin_main.cpp:1847:13:void clean_up_after_endstop_or_probe_move()	8	static
Marlin_main.cpp:1879:15:bool axis_unhomed_error(bool, bool, bool)	24	static
Marlin_main.cpp:2437:13:void homeaxis(AxisEnum)	40	static
Marlin_main.cpp:2652:6:void gcode_get_destination()	24	static
Marlin_main.cpp:2674:6:void unknown_command_error()	8	static
Marlin_main.cpp:2687:8:void host_keepalive()	16	static
Marlin_main.cpp:2717:13:void gcode_G0_G1()	8	static
Marlin_main.cpp:2745:15:void gcode_G2_G3(bool)	24	static
Marlin_main.cpp:2776:13:void gcode_G4()	16	static
cmath:1802:5:constexpr typename __gnu_cxx::__enable_if<std::__is_integer<_Tp>::__value, double>::__type std::round(_Tp) [with _Tp = int]	24	static
Marlin_main.cpp:2930:13:void gcode_G28()	32	static
Marlin_main.cpp:3963:13:void gcode_G92()	24	static
Marlin_main.cpp:4045:13:void gcode_M17()	8	static
Marlin_main.cpp:4142:13:void gcode_M31()	40	static
Marlin_main.cpp:4221:13:void gcode_M42()	24	static
Marlin_main.cpp:4482:13:void gcode_M75()	8	static
Marlin_main.cpp:4487:13:void gcode_M76()	8	static
Marlin_main.cpp:4492:13:void gcode_M77()	8	static
Marlin_main.cpp:4509:13:void gcode_M104()	24	static
Marlin_main.cpp:4544:8:void print_heaterstates()	24	static
Marlin_main.cpp:4597:13:void gcode_M105()	8	static
Marlin_main.cpp:4619:15:void gcode_M106()	16	static
Marlin_main.cpp:4629:15:void gcode_M107()	16	static
Marlin_main.cpp:4641:15:void gcode_M108()	4	static
Marlin_main.cpp:4647:15:void gcode_M112()	8	static
Marlin_main.cpp:4656:15:void gcode_M410()	8	static
Marlin_main.cpp:4671:13:void gcode_M109()	56	static
Marlin_main.cpp:4807:15:void gcode_M190()	56	static
Marlin_main.cpp:4917:13:void gcode_M110()	8	static
Marlin_main.cpp:4924:13:void gcode_M111()	16	static
Marlin_main.cpp:4970:15:void gcode_M113()	8	static
Marlin_main.cpp:5013:13:void gcode_M140()	16	static
Marlin_main.cpp:5120:13:void gcode_M81()	8	static
Marlin_main.cpp:5150:13:void gcode_M82()	4	static
Marlin_main.cpp:5155:13:void gcode_M83()	4	static
Marlin_main.cpp:5160:13:void gcode_M18_M84()	16	static
Marlin_main.cpp:5189:13:void gcode_M85()	8	static
Marlin_main.cpp:5197:13:void gcode_M92()	32	static
Marlin_main.cpp:5221:13:void report_current_position()	16	static
Marlin_main.cpp:5257:13:void gcode_M114()	8	static
Marlin_main.cpp:5262:13:void gcode_M115()	8	static
Marlin_main.cpp:5269:13:void gcode_M117()	8	static
Marlin_main.cpp:5276:13:void gcode_M119()	8	static
Marlin_main.cpp:5281:13:void gcode_M120()	8	static
Marlin_main.cpp:5286:13:void gcode_M121()	8	static
Marlin_main.cpp:5364:13:void gcode_M200()	24	static
Marlin_main.cpp:5390:13:void gcode_M201()	24	static
Marlin_main.cpp:5412:13:void gcode_M203()	24	static
Marlin_main.cpp:5427:13:void gcode_M204()	8	static
Marlin_main.cpp:5460:13:void gcode_M205()	8	static
Marlin_main.cpp:5472:13:void gcode_M206()	24	static
Marlin_main.cpp:5616:15:void gcode_M218()	24	static
Marlin_main.cpp:5646:13:void gcode_M220()	8	static
Marlin_main.cpp:5653:13:void gcode_M221()	16	static
Marlin_main.cpp:5662:13:void gcode_M226()	24	static
Marlin_main.cpp:5710:15:void gcode_M280()	24	static
Marlin_main.cpp:5765:15:void gcode_M301()	24	static
Marlin_main.cpp:5895:15:void gcode_M302()	24	static
Marlin_main.cpp:5923:13:void gcode_M303()	24	static
Marlin_main.cpp:6067:13:void gcode_M400()	8	static
Marlin_main.cpp:6139:6:void quickstop_stepper()	16	static
Marlin_main.cpp:6205:13:void gcode_M428()	32	static
Marlin_main.cpp:6241:13:void gcode_M500()	8	static
Marlin_main.cpp:6248:13:void gcode_M501()	8	static
Marlin_main.cpp:6255:13:void gcode_M502()	8	static
Marlin_main.cpp:6262:13:void gcode_M503()	8	static
Marlin_main.cpp:6556:13:void gcode_M907()	4	static
Marlin_main.cpp:6711:13:void gcode_M999()	8	static
Marlin_main.cpp:6728:13:void invalid_extruder_error(const uint8_t&)	16	static
Marlin_main.cpp:6735:6:void tool_change(uint8_t, float, bool)	32	static
Marlin_main.cpp:7033:13:void gcode_T(uint8_t)	24	static
Marlin_main.cpp:7069:6:void process_next_command()	24	static
Marlin_main.cpp:7761:6:void FlushSerialRequestResend()	8	static
Marlin_main.cpp:7769:6:void ok_to_send()	8	static
Marlin_main.cpp:7787:6:void clamp_to_software_endstops(float*)	16	static
Marlin_main.cpp:7981:6:void set_current_from_steppers_for_axis(AxisEnum)	24	static
Marlin_main.cpp:8139:15:bool prepare_move_to_destination_cartesian()	8	static
Marlin_main.cpp:8161:15:void prevent_dangerous_extrude(float&, float&)	24	static
Marlin_main.cpp:8188:6:void prepare_move_to_destination()	8	static
Marlin_main.cpp:8218:8:void plan_arc(float*, float*, uint8_t)	160	static
Marlin_main.cpp:8517:6:void enable_all_steppers()	8	static
Marlin_main.cpp:8527:6:void disable_all_steppers()	8	static
Marlin_main.cpp:8540:6:void idle()	8	static
Marlin_main.cpp:8576:6:void manage_inactivity(bool)	24	static
Marlin_main.cpp:8741:6:void kill(const char*)	24	static
Marlin_main.cpp:8842:6:void stop()	8	static
Marlin_main.cpp:8853:7:float calculate_volumetric_multiplier(float)	32	static
Marlin_main.cpp:8859:6:void calculate_volumetric_multipliers()	24	static
Marlin_main.cpp:8864:6:void BSP_SD_DetectCallback()	4	static
Marlin_main.cpp:8880:1:void __static_initialization_and_destruction_0(int, int)	24	static
Marlin_main.cpp:8880:1:cpp)	8	static
