MarlinSerial.h:151:23:void MarlinSerial::write(uint8_t)	16	static
MarlinSerial.h:172:23:void MarlinSerial::print(const char*)	16	static
MarlinSerial.h:173:23:void MarlinSerial::write(const char*)	16	static
Marlin.h:114:19:void serialprintPGM(const char*)	16	static
duration_t.h:35:3:duration_t::duration_t()	24	static
duration_t.h:43:3:duration_t::duration_t(const uint32_t&)	16	static
duration_t.h:73:18:uint8_t duration_t::year() const	16	static
duration_t.h:81:19:uint16_t duration_t::day() const	16	static
duration_t.h:89:19:uint32_t duration_t::hour() const	16	static
duration_t.h:97:19:uint32_t duration_t::minute() const	16	static
duration_t.h:105:19:uint32_t duration_t::second() const	16	static
duration_t.h:123:8:void duration_t::toString(char*) const	56	static
printcounter.cpp:27:1:PrintCounter::PrintCounter()	16	static
printcounter.cpp:31:10:millis_t PrintCounter::deltaDuration()	24	static
printcounter.cpp:41:6:bool PrintCounter::isLoaded()	16	static
printcounter.cpp:45:6:void PrintCounter::incFilamentUsed(const double&)	24	static
printcounter.cpp:57:6:void PrintCounter::initStats()	16	static
printcounter.cpp:69:6:void PrintCounter::loadStats()	16	static
printcounter.cpp:84:6:void PrintCounter::saveStats()	16	static
printcounter.cpp:99:6:void PrintCounter::showStats()	64	static
printcounter.cpp:152:6:void PrintCounter::tick()	24	static
printcounter.cpp:181:6:bool PrintCounter::start()	24	static
printcounter.cpp:199:6:bool PrintCounter::stop()	16	static
printcounter.cpp:218:6:void PrintCounter::reset()	16	static
