stm32f4xx_it.c:85:6:NMI_Handler	4	static
stm32f4xx_it.c:94:6:HardFault_Handler	4	static
stm32f4xx_it.c:107:6:MemManage_Handler	4	static
stm32f4xx_it.c:120:6:BusFault_Handler	4	static
stm32f4xx_it.c:133:6:UsageFault_Handler	4	static
stm32f4xx_it.c:146:6:SVC_Handler	4	static
stm32f4xx_it.c:155:6:DebugMon_Handler	4	static
stm32f4xx_it.c:164:6:PendSV_Handler	4	static
stm32f4xx_it.c:173:6:SysTick_Handler	8	static
stm32f4xx_it.c:194:6:EXTI0_IRQHandler	4	static
stm32f4xx_it.c:205:6:EXTI1_IRQHandler	8	static
stm32f4xx_it.c:215:6:EXTI15_10_IRQHandler	8	static
stm32f4xx_it.c:226:6:TIM1_CC_IRQHandler	8	static
stm32f4xx_it.c:235:6:TIM2_IRQHandler	8	static
stm32f4xx_it.c:244:6:TIM3_IRQHandler	8	static
stm32f4xx_it.c:253:6:TIM4_IRQHandler	8	static
stm32f4xx_it.c:261:6:TIM5_IRQHandler	8	static
stm32f4xx_it.c:274:6:TIM1_BRK_TIM9_IRQHandler	8	static
stm32f4xx_it.c:283:6:TIM1_UP_TIM10_IRQHandler	8	static
stm32f4xx_it.c:296:6:TIM1_TRG_COM_TIM11_IRQHandler	8	static
stm32f4xx_it.c:315:6:USART1_IRQHandler	8	static
stm32f4xx_it.c:327:6:USART2_IRQHandler	8	static
stm32f4xx_it.c:335:6:DMA2_Stream0_IRQHandler	8	static
stm32f4xx_it.c:344:6:ADC_IRQHandler	8	static
stm32f4xx_it.c:358:6:DMA2_Stream3_IRQHandler	8	static
stm32f4xx_it.c:368:6:DMA2_Stream6_IRQHandler	8	static
stm32f4xx_it.c:378:6:DMA1_Stream5_IRQHandler	8	static
stm32f4xx_it.c:388:6:DMA1_Stream6_IRQHandler	8	static
stm32f4xx_it.c:398:6:SDIO_IRQHandler	8	static
