stm32f4xx_hal_adc_ex.c:177:19:HAL_ADCEx_InjectedStart	32	static
stm32f4xx_hal_adc_ex.c:246:19:HAL_ADCEx_InjectedStart_IT	32	static
stm32f4xx_hal_adc_ex.c:326:19:HAL_ADCEx_InjectedStop	16	static
stm32f4xx_hal_adc_ex.c:345:19:HAL_ADCEx_InjectedPollForConversion	24	static
stm32f4xx_hal_adc_ex.c:393:19:HAL_ADCEx_InjectedStop_IT	16	static
stm32f4xx_hal_adc_ex.c:423:10:HAL_ADCEx_InjectedGetValue	24	static
stm32f4xx_hal_adc_ex.c:473:19:HAL_ADCEx_MultiModeStart_DMA	32	static
stm32f4xx_hal_adc_ex.c:548:19:HAL_ADCEx_MultiModeStop_DMA	16	static
stm32f4xx_hal_adc_ex.c:582:10:HAL_ADCEx_MultiModeGetValue	16	static
stm32f4xx_hal_adc_ex.c:594:13:HAL_ADCEx_InjectedConvCpltCallback	16	static
stm32f4xx_hal_adc_ex.c:609:19:HAL_ADCEx_InjectedConfigChannel	16	static
stm32f4xx_hal_adc_ex.c:747:19:HAL_ADCEx_MultiModeConfigChannel	16	static
stm32f4xx_hal_adc_ex.c:786:13:ADC_MultiModeDMAConvCplt	24	static
stm32f4xx_hal_adc_ex.c:811:13:ADC_MultiModeDMAHalfConvCplt	24	static
stm32f4xx_hal_adc_ex.c:824:13:ADC_MultiModeDMAError	24	static
