stm32f4xx_hal_adc.c:211:19:HAL_ADC_Init	16	static
stm32f4xx_hal_adc.c:264:19:HAL_ADC_DeInit	16	static
stm32f4xx_hal_adc.c:297:13:HAL_ADC_MspInit	16	static
stm32f4xx_hal_adc.c:310:13:HAL_ADC_MspDeInit	16	static
stm32f4xx_hal_adc.c:347:19:HAL_ADC_Start	24	static
stm32f4xx_hal_adc.c:421:19:HAL_ADC_Stop	16	static
stm32f4xx_hal_adc.c:440:19:HAL_ADC_PollForConversion	24	static
stm32f4xx_hal_adc.c:490:19:HAL_ADC_PollForEvent	32	static
stm32f4xx_hal_adc.c:545:19:HAL_ADC_Start_IT	24	static
stm32f4xx_hal_adc.c:627:19:HAL_ADC_Stop_IT	16	static
stm32f4xx_hal_adc.c:651:6:HAL_ADC_IRQHandler	24	static
stm32f4xx_hal_adc.c:790:19:HAL_ADC_Start_DMA	32	static
stm32f4xx_hal_adc.c:856:19:HAL_ADC_Stop_DMA	16	static
stm32f4xx_hal_adc.c:883:10:HAL_ADC_GetValue	16	static
stm32f4xx_hal_adc.c:895:13:HAL_ADC_ConvCpltCallback	16	static
stm32f4xx_hal_adc.c:908:13:HAL_ADC_ConvHalfCpltCallback	16	static
stm32f4xx_hal_adc.c:921:13:HAL_ADC_LevelOutOfWindowCallback	16	static
stm32f4xx_hal_adc.c:934:13:HAL_ADC_ErrorCallback	16	static
stm32f4xx_hal_adc.c:970:19:HAL_ADC_ConfigChannel	16	static
stm32f4xx_hal_adc.c:1055:19:HAL_ADC_AnalogWDGConfig	16	static
stm32f4xx_hal_adc.c:1137:22:HAL_ADC_GetState	16	static
stm32f4xx_hal_adc.c:1149:10:HAL_ADC_GetError	16	static
stm32f4xx_hal_adc.c:1165:13:ADC_Init	16	static
stm32f4xx_hal_adc.c:1233:13:ADC_DMAConvCplt	24	static
stm32f4xx_hal_adc.c:1258:13:ADC_DMAHalfConvCplt	24	static
stm32f4xx_hal_adc.c:1271:13:ADC_DMAError	24	static
