MarlinSerial.h:151:23:void MarlinSerial::write(uint8_t)	16	static
MarlinSerial.h:172:23:void MarlinSerial::print(const char*)	16	static
MarlinSerial.h:173:23:void MarlinSerial::write(const char*)	16	static
Marlin.h:114:19:void serialprintPGM(const char*)	16	static
main.cpp:72:6:void stmInit()	240	static
main.cpp:171:5:int main()	16	static
main.cpp:218:6:void SystemClock_Config()	80	static
main.cpp:262:6:void Error_Handler()	4	static
