stm32f4xx_3dprinter_wifi.c:131:6:BSP_WifiHwInit	32	static
stm32f4xx_3dprinter_wifi.c:147:6:BSP_WifiGpioInit	32	static
stm32f4xx_3dprinter_wifi.c:178:6:BSP_WifiUartInit	24	static
stm32f4xx_3dprinter_wifi.c:231:6:BSP_WifiUartTxCpltCallback	24	static
stm32f4xx_3dprinter_wifi.c:243:9:BSP_WifiUartRxCpltCallback	40	static
stm32f4xx_3dprinter_wifi.c:306:9:BSP_WifiParseRxBytes	40	static
stm32f4xx_3dprinter_wifi.c:569:9:BSP_WifiParseTxBytes	24	static
stm32f4xx_3dprinter_wifi.c:749:6:BSP_WifiProcessUartBytes	40	static
stm32f4xx_3dprinter_wifi.c:1110:6:BSP_WifiRestart	8	static
stm32f4xx_3dprinter_wifi.c:1126:9:BSP_WifiCreateFileInWifiModuleRam	176	static
stm32f4xx_3dprinter_wifi.c:1181:9:BSP_WifiIsFileCreation	16	static
