stm32f4xx_hal_sd.c:339:21:HAL_SD_Init	72	static
stm32f4xx_hal_sd.c:397:19:HAL_SD_DeInit	16	static
stm32f4xx_hal_sd.c:415:13:HAL_SD_MspInit	16	static
stm32f4xx_hal_sd.c:427:13:HAL_SD_MspDeInit	16	static
stm32f4xx_hal_sd.c:464:21:HAL_SD_ReadBlocks	88	static
stm32f4xx_hal_sd.c:648:21:HAL_SD_WriteBlocks	104	static
stm32f4xx_hal_sd.c:866:21:HAL_SD_ReadBlocks_DMA	88	static
stm32f4xx_hal_sd.c:983:21:HAL_SD_WriteBlocks_DMA	88	static
stm32f4xx_hal_sd.c:1099:21:HAL_SD_CheckReadOperation	40	static
stm32f4xx_hal_sd.c:1159:21:HAL_SD_CheckWriteOperation	40	static
stm32f4xx_hal_sd.c:1222:21:HAL_SD_Erase	80	static
stm32f4xx_hal_sd.c:1326:6:HAL_SD_IRQHandler	16	static
stm32f4xx_hal_sd.c:1399:13:HAL_SD_XferCpltCallback	16	static
stm32f4xx_hal_sd.c:1411:13:HAL_SD_XferErrorCallback	16	static
stm32f4xx_hal_sd.c:1424:13:HAL_SD_DMA_RxCpltCallback	16	static
stm32f4xx_hal_sd.c:1437:13:HAL_SD_DMA_RxErrorCallback	16	static
stm32f4xx_hal_sd.c:1450:13:HAL_SD_DMA_TxCpltCallback	16	static
stm32f4xx_hal_sd.c:1463:13:HAL_SD_DMA_TxErrorCallback	16	static
stm32f4xx_hal_sd.c:1496:21:HAL_SD_Get_CardInfo	32	static
stm32f4xx_hal_sd.c:1712:21:HAL_SD_WideBusOperation_Config	72	static
stm32f4xx_hal_sd.c:1766:21:HAL_SD_StopTransfer	40	static
stm32f4xx_hal_sd.c:1793:21:HAL_SD_HighSpeed	160	static
stm32f4xx_hal_sd.c:1956:21:HAL_SD_SendSDStatus	80	static
stm32f4xx_hal_sd.c:2092:29:HAL_SD_GetStatus	24	static
stm32f4xx_hal_sd.c:2121:21:HAL_SD_GetCardStatus	88	static
stm32f4xx_hal_sd.c:2216:13:SD_DMA_RxCplt	24	static
stm32f4xx_hal_sd.c:2244:13:SD_DMA_RxError	24	static
stm32f4xx_hal_sd.c:2258:13:SD_DMA_TxCplt	24	static
stm32f4xx_hal_sd.c:2286:13:SD_DMA_TxError	24	static
stm32f4xx_hal_sd.c:2299:32:SD_GetState	24	static
stm32f4xx_hal_sd.c:2319:28:SD_Initialize_Cards	48	static
stm32f4xx_hal_sd.c:2411:28:SD_Select_Deselect	48	static
stm32f4xx_hal_sd.c:2437:28:SD_PowerON	56	static
stm32f4xx_hal_sd.c:2579:28:SD_PowerOFF	24	static
stm32f4xx_hal_sd.c:2596:28:SD_SendStatus	40	static
stm32f4xx_hal_sd.c:2635:28:SD_CmdError	32	static
stm32f4xx_hal_sd.c:2667:28:SD_CmdResp7Error	32	static
stm32f4xx_hal_sd.c:2711:28:SD_CmdResp1Error	24	static
stm32f4xx_hal_sd.c:2859:28:SD_CmdResp3Error	24	static
stm32f4xx_hal_sd.c:2887:28:SD_CmdResp2Error	24	static
stm32f4xx_hal_sd.c:2930:28:SD_CmdResp6Error	32	static
stm32f4xx_hal_sd.c:3004:28:SD_WideBus_Enable	48	static
stm32f4xx_hal_sd.c:3073:28:SD_WideBus_Disable	48	static
stm32f4xx_hal_sd.c:3144:28:SD_FindSCR	88	static
stm32f4xx_hal_sd.c:3266:28:SD_IsCardProgramming	48	static
